label,count,mean,std,min,25%,50%,75%,max,variable
greedy,6,0.178297279,0.11167419,0.035062292,0.118555304,0.163143912,0.228733196,0.35414483,thyroid
greedy,6,0.21788118,0.137223424,0.002435014,0.142905807,0.252630733,0.319307695,0.351726422,acne_medication
greedy,10,0.008309822,0.004355709,0.002755911,0.005086867,0.007923919,0.010521153,0.016640554,cosmetics_frequency
greedy,10,0.283035336,0.249162618,0.008102547,0.098265849,0.159373057,0.500507765,0.638859701,homecooked_meals_frequency
greedy,6,0.198574599,0.096873129,0.093528632,0.128877119,0.182096896,0.253560033,0.345206897,tonsils_removed
greedy,10,0.106331919,0.060196888,0.03000437,0.051976171,0.103083506,0.155278934,0.204589263,smoking_frequency
greedy,10,0.335584426,0.201471269,0.059178743,0.210966055,0.309901718,0.439779823,0.759706764,antibiotic_history
greedy,28,0.113806002,0.080520882,0.002676929,0.0382769,0.111967717,0.154260365,0.269967654,age_cat
greedy,1,0.030710446,,0.030710446,0.030710446,0.030710446,0.030710446,0.030710446,lung_disease
greedy,6,0.043782963,0.022022965,0.020663666,0.028341029,0.039525379,0.054619702,0.0787193,exercise_location
greedy,10,0.131106074,0.100324457,0.012835167,0.045121868,0.118108922,0.192444491,0.319600156,meat_eggs_frequency
greedy,10,0.188025906,0.128961412,0.037740236,0.088490713,0.170994303,0.288543041,0.393942628,olive_oil
greedy,10,0.087060345,0.066929876,0.000578447,0.056761718,0.063242416,0.128055402,0.192849232,flossing_frequency
greedy,10,0.091263522,0.063997453,0.006444683,0.038191288,0.084717628,0.144442134,0.182605879,diet_type
greedy,1,0.096121689,,0.096121689,0.096121689,0.096121689,0.096121689,0.096121689,diabetes
greedy,3,0.130305265,0.091731506,0.032450344,0.088284627,0.14411891,0.179232725,0.214346541,ibd
greedy,10,0.118327724,0.111312516,0.000387787,0.026556251,0.058047925,0.234740978,0.270484255,vivid_dreams
greedy,10,0.09111901,0.052002862,0.018295058,0.051532389,0.085200398,0.127454901,0.173850263,red_meat_frequency
greedy,3,0.135732921,0.075264081,0.054189479,0.102330896,0.150472313,0.176504642,0.202536971,acid_reflux
greedy,10,0.091877538,0.05764456,0.012031576,0.051679576,0.092498127,0.119264557,0.211293081,poultry_frequency
greedy,6,0.207453735,0.10864783,0.09576246,0.132121975,0.183065488,0.259072125,0.383280502,chickenpox
greedy,21,0.173895262,0.117547066,0.02632285,0.077572262,0.170449044,0.253078722,0.457382854,bowel_movement_quality
greedy,6,0.197373586,0.106711149,0.052231736,0.140972056,0.181198518,0.266921606,0.346553539,fungal_overgrowth
greedy,10,0.098178585,0.057902251,0.013554771,0.079052176,0.094281138,0.115243825,0.191072972,race
greedy,10,0.152514665,0.109148073,0.006853719,0.054079745,0.15708831,0.243086812,0.305099661,salted_snacks_frequency
greedy,1,0.104602039,,0.104602039,0.104602039,0.104602039,0.104602039,0.104602039,kidney_disease
greedy,6,0.187721619,0.108275508,0.052571605,0.092126274,0.229858626,0.257951202,0.300509975,softener
greedy,1,0.170644348,,0.170644348,0.170644348,0.170644348,0.170644348,0.170644348,liver_disease
greedy,6,0.314163768,0.170912579,0.096761834,0.219695059,0.30888036,0.366609646,0.59464069,alcohol_consumption
greedy,10,0.077512155,0.081748644,0.002471206,0.018672179,0.02192008,0.163490157,0.182681488,sugary_sweets_frequency
greedy,6,0.234121943,0.130873449,0.050614519,0.188287846,0.224020794,0.266231688,0.449396702,multivitamin
greedy,6,0.154442112,0.14034514,0.000324227,0.041718816,0.15255558,0.267204659,0.311023038,skin_condition
greedy,6,0.211569516,0.142153768,0.019829966,0.131246818,0.203181632,0.288747266,0.418686174,bmi_cat
greedy,10,0.104529464,0.058736251,0.030308929,0.070718876,0.096356368,0.13464957,0.226642189,probiotic_frequency
greedy,3,0.123229367,0.054826832,0.088826185,0.09161609,0.094405994,0.140430958,0.186455922,weight_change
greedy,10,0.081853825,0.048283581,0.014857559,0.05720535,0.075999293,0.096186576,0.167195128,artificial_sweeteners
greedy,10,0.106385656,0.065311482,0.011681917,0.048966762,0.12073782,0.164811456,0.182116846,high_fat_red_meat_frequency
greedy,10,0.193314418,0.141936336,0.009358282,0.075541791,0.165685914,0.317676037,0.403234571,alcohol_frequency
greedy,10,0.182352127,0.141272405,0.009663646,0.063158272,0.145866853,0.31886278,0.386139125,fruit_frequency
greedy,6,0.130495272,0.075651589,0.046627904,0.078639175,0.117701791,0.168148795,0.250357381,autoimmune
greedy,10,0.079953141,0.048945207,0.005206816,0.061870137,0.078288598,0.08910647,0.169276059,ready_to_eat_meals_frequency
greedy,1,0.135653427,,0.135653427,0.135653427,0.135653427,0.135653427,0.135653427,cancer
greedy,3,0.342788677,0.294362406,0.00664961,0.236918607,0.467187604,0.51085821,0.554528816,cdiff
greedy,10,0.174957231,0.17535018,0.010218194,0.033995252,0.072219167,0.359775005,0.415967814,prepared_meals_frequency
greedy,10,0.180398888,0.106472131,0.014055237,0.130495138,0.179339307,0.234508973,0.358601563,frozen_dessert_frequency
greedy,10,0.166288972,0.106306641,0.002668919,0.107009571,0.162219722,0.211412237,0.334816787,whole_eggs
greedy,1,0.183324634,,0.183324634,0.183324634,0.183324634,0.183324634,0.183324634,cardiovascular_disease
greedy,15,0.37034274,0.336579104,0.012039869,0.10508494,0.24693,0.627168811,0.979909655,bowel_movement_frequency
greedy,10,0.041319663,0.023289486,0.013492775,0.02565724,0.035986545,0.053417781,0.089262965,milk_substitute_frequency
greedy,10,0.126654962,0.132020568,0.006549465,0.019001472,0.045570889,0.268327417,0.300776324,whole_grain_frequency
greedy,10,0.592287258,0.564696746,0.089533373,0.139395614,0.25959459,1.147190967,1.502838667,teethbrushing_frequency
greedy,6,0.152709042,0.114513852,0.020254533,0.06480664,0.150785864,0.224481103,0.30923491,gluten
greedy,6,0.25807005,0.149174136,0.078475825,0.156835811,0.236196445,0.357184689,0.469655213,sibo
greedy,10,0.149567994,0.12229534,0.005339055,0.040869396,0.126282808,0.261143975,0.327340665,one_liter_of_water_a_day_frequency
greedy,10,0.181411578,0.103523776,0.05683821,0.09566299,0.170839692,0.259816112,0.360263722,seafood_frequency
greedy,6,0.231257102,0.11566598,0.087424141,0.16144243,0.208029735,0.307347117,0.397692761,lactose
greedy,3,0.111929517,0.059265636,0.051518084,0.082904916,0.114291747,0.142135234,0.16997872,asd
greedy,36,0.252253586,0.193781113,0.003628801,0.099700822,0.188142033,0.411117122,0.782830463,drinks_per_session
greedy,10,0.117903898,0.106742591,0.001167791,0.025233017,0.074046988,0.215752457,0.291304028,milk_cheese_frequency
greedy,3,0.077547559,0.065081116,0.002401389,0.058468775,0.11453616,0.115120643,0.115705127,migraine
greedy,10,0.23210939,0.16298448,0.017393147,0.124566086,0.181163501,0.34565649,0.546079672,pool_frequency
greedy,10,0.107947346,0.068055721,0.003652924,0.059103957,0.10133183,0.143861134,0.209581157,sleep_duration
greedy,6,0.066385755,0.041397752,0.001543424,0.059300161,0.066248249,0.07376043,0.131025984,ibs
greedy,10,0.173481513,0.139181009,0.009417332,0.049848919,0.150363211,0.302602512,0.366223288,types_of_plants
greedy,10,0.063249232,0.039872639,0.004487488,0.053544836,0.062249605,0.066778675,0.130571087,sugar_sweetened_drink_frequency
greedy,45,0.250897253,0.174794376,0.000413381,0.120038317,0.233585289,0.377690917,0.715757491,country_residence
greedy,6,0.164260383,0.083604241,0.067007836,0.11144833,0.145751126,0.212922629,0.291725013,drinking_water_source
greedy,6,0.067942202,0.032145959,0.037012208,0.043173712,0.062497958,0.083265995,0.118724119,mental_illness
greedy,10,0.153884481,0.106982818,0.001718356,0.101401001,0.132048241,0.199353173,0.330835683,exercise_frequency
greedy,10,0.371158186,0.317972464,0.020255668,0.123167671,0.220704689,0.662095951,0.829618463,vegetable_frequency
greedy,6,0.223045161,0.120270756,0.073617148,0.162418584,0.209821003,0.25452398,0.428969062,nail_biter
greedy,6,0.197198662,0.105250869,0.07125892,0.104634413,0.221984431,0.261184091,0.328195804,seasonal_allergies
greedy,1,0.102864466,,0.102864466,0.102864466,0.102864466,0.102864466,0.102864466,sex
greedy,55,0.316092581,0.216010107,0.007077288,0.13792911,0.290876092,0.440975073,0.867046558,country
mafft,6,0.148424459,0.119008095,0.00619067,0.057377795,0.150804308,0.231637274,0.297930249,thyroid
mafft,6,0.252348849,0.160717988,0.009696289,0.148634429,0.312316843,0.362982318,0.405818684,acne_medication
mafft,10,0.014597904,0.00840338,0.002229581,0.01014241,0.013132364,0.019761138,0.029802746,cosmetics_frequency
mafft,10,0.249531172,0.237557733,0.005807327,0.058317505,0.117419101,0.481912324,0.571554886,homecooked_meals_frequency
mafft,6,0.24176065,0.116643618,0.122335146,0.139732044,0.242821213,0.305796346,0.410429282,tonsils_removed
mafft,10,0.088040601,0.049507348,0.016904266,0.051620833,0.083774501,0.113813359,0.171885214,smoking_frequency
mafft,10,0.297962916,0.183449741,0.043865424,0.175673878,0.291597514,0.379726702,0.684310851,antibiotic_history
mafft,28,0.149647876,0.097337035,0.01555048,0.058617291,0.158368762,0.203238066,0.348149503,age_cat
mafft,1,0.040624652,,0.040624652,0.040624652,0.040624652,0.040624652,0.040624652,lung_disease
mafft,6,0.02133743,0.012115318,0.004532101,0.017055129,0.020864414,0.023481304,0.041624687,exercise_location
mafft,10,0.119742749,0.090533837,0.011624639,0.041901611,0.109798743,0.182591318,0.291525885,meat_eggs_frequency
mafft,10,0.149587231,0.10652624,0.017297846,0.069972904,0.121613235,0.236925934,0.324845875,olive_oil
mafft,10,0.096338144,0.066049209,0.000911792,0.048623869,0.091544399,0.126352995,0.219432481,flossing_frequency
mafft,10,0.099373949,0.058472925,0.025771482,0.062861376,0.085364937,0.134937154,0.199473846,diet_type
mafft,1,0.033795927,,0.033795927,0.033795927,0.033795927,0.033795927,0.033795927,diabetes
mafft,3,0.234963558,0.051912326,0.175161611,0.218232279,0.261302947,0.264864532,0.268426117,ibd
mafft,10,0.120861303,0.118619288,0.014266855,0.024297799,0.045187455,0.251262491,0.27049492,vivid_dreams
mafft,10,0.097698251,0.059171757,0.008309337,0.063941546,0.090513832,0.11949716,0.195908716,red_meat_frequency
mafft,3,0.126290009,0.078940903,0.037731255,0.0948005,0.151869745,0.170569386,0.189269026,acid_reflux
mafft,10,0.088396573,0.051150192,0.01975532,0.059110429,0.079120318,0.11857936,0.194744665,poultry_frequency
mafft,6,0.222666578,0.122965798,0.056134333,0.167598696,0.191696965,0.311753086,0.385133474,chickenpox
mafft,21,0.180336225,0.124161318,0.001752866,0.084241119,0.178932688,0.247659029,0.452056826,bowel_movement_quality
mafft,6,0.177393143,0.094369571,0.064441617,0.097846038,0.191834715,0.232809615,0.303263414,fungal_overgrowth
mafft,10,0.083691979,0.046894382,0.024013573,0.051212242,0.076888815,0.118434155,0.159983522,race
mafft,10,0.149933552,0.094149431,0.012148926,0.077710537,0.148345518,0.208765357,0.292897809,salted_snacks_frequency
mafft,1,0.132701102,,0.132701102,0.132701102,0.132701102,0.132701102,0.132701102,kidney_disease
mafft,6,0.21803694,0.143455796,0.029605165,0.099505634,0.292715341,0.31603837,0.334270684,softener
mafft,1,0.177711545,,0.177711545,0.177711545,0.177711545,0.177711545,0.177711545,liver_disease
mafft,6,0.29538025,0.188053081,0.006120779,0.242254824,0.295458412,0.348298039,0.584812353,alcohol_consumption
mafft,10,0.076186349,0.060734066,0.009911568,0.03460603,0.047260753,0.12381041,0.168651518,sugary_sweets_frequency
mafft,6,0.269371253,0.135027684,0.112297901,0.188373658,0.248743514,0.319018548,0.495748658,multivitamin
mafft,6,0.100162293,0.076128295,0.00572274,0.046502936,0.093829628,0.164822922,0.18837704,skin_condition
mafft,6,0.190443097,0.116319411,0.022083519,0.147098869,0.190782248,0.220441979,0.376144266,bmi_cat
mafft,10,0.103058539,0.056758496,0.028000054,0.066948975,0.089372643,0.138993734,0.219027447,probiotic_frequency
mafft,3,0.095436169,0.05516089,0.03576921,0.070867819,0.105966428,0.125269648,0.144572869,weight_change
mafft,10,0.058578555,0.03719293,0.000761603,0.051424931,0.056590054,0.064151554,0.116744353,artificial_sweeteners
mafft,10,0.147126429,0.079672045,0.01716852,0.099147809,0.126609501,0.213101921,0.275381935,high_fat_red_meat_frequency
mafft,10,0.1638571,0.11984378,0.022481598,0.065477847,0.134600036,0.272890761,0.332763266,alcohol_frequency
mafft,10,0.187019001,0.145307047,0.033592982,0.073832175,0.130383862,0.320089981,0.406020923,fruit_frequency
mafft,6,0.045577106,0.028131111,0.006355103,0.026418132,0.049020066,0.066288001,0.078139269,autoimmune
mafft,10,0.079141371,0.051821034,0.003519534,0.034363259,0.083515212,0.111810844,0.151185335,ready_to_eat_meals_frequency
mafft,1,0.136884718,,0.136884718,0.136884718,0.136884718,0.136884718,0.136884718,cancer
mafft,3,0.419541497,0.17317956,0.233730804,0.341085113,0.448439423,0.512446843,0.576454263,cdiff
mafft,10,0.170041395,0.162933929,0.013349219,0.040145535,0.078732554,0.336812224,0.394132419,prepared_meals_frequency
mafft,10,0.219001355,0.150895619,0.007455854,0.148242432,0.178781326,0.33814805,0.466396815,frozen_dessert_frequency
mafft,10,0.152438899,0.088622393,0.018828191,0.093104299,0.141385093,0.192160273,0.289643459,whole_eggs
mafft,1,0.226584555,,0.226584555,0.226584555,0.226584555,0.226584555,0.226584555,cardiovascular_disease
mafft,15,0.363084493,0.323233574,0.020217222,0.105551691,0.259827461,0.60071032,0.930738798,bowel_movement_frequency
mafft,10,0.037407759,0.021089378,0.008049373,0.027559466,0.03586679,0.044685982,0.076809005,milk_substitute_frequency
mafft,10,0.125440042,0.136860245,0.003462482,0.015865106,0.035396527,0.273333137,0.302847793,whole_grain_frequency
mafft,10,0.61951921,0.601645446,0.017399864,0.144900089,0.279118187,1.234410313,1.556359855,teethbrushing_frequency
mafft,6,0.129516719,0.083627382,0.037665158,0.062266317,0.125521751,0.175706719,0.254775444,gluten
mafft,6,0.237581814,0.146634819,0.036541836,0.161284317,0.212828917,0.34912258,0.424634631,sibo
mafft,10,0.122612934,0.090611126,0.002498857,0.045600921,0.113712193,0.201332318,0.248148838,one_liter_of_water_a_day_frequency
mafft,10,0.165277348,0.092051489,0.047057191,0.087561785,0.158300792,0.222419143,0.324952473,seafood_frequency
mafft,6,0.268191689,0.14571415,0.052795665,0.187884223,0.270651909,0.380273443,0.437941704,lactose
mafft,3,0.061817159,0.028376985,0.043895317,0.045458578,0.047021839,0.07077808,0.09453432,asd
mafft,36,0.243041842,0.170201224,0.024639563,0.096473273,0.221050792,0.373562392,0.707664986,drinks_per_session
mafft,10,0.106124362,0.083755278,0.010123254,0.038121137,0.078394695,0.173299111,0.251520612,milk_cheese_frequency
mafft,3,0.101481663,0.062899583,0.030331978,0.077376622,0.124421266,0.137056505,0.149691744,migraine
mafft,10,0.222128284,0.202790285,0.011085616,0.054657725,0.135023125,0.391520325,0.575131839,pool_frequency
mafft,10,0.090997189,0.06895685,0.00862292,0.045113014,0.066310407,0.136520274,0.200137904,sleep_duration
mafft,6,0.056934228,0.031213668,0.012798393,0.047476425,0.054895382,0.062378744,0.109139573,ibs
mafft,10,0.139470041,0.111567345,0.001975493,0.039666805,0.125619412,0.247098608,0.284951895,types_of_plants
mafft,10,0.078043824,0.043359846,0.022520733,0.047530604,0.06651967,0.107564207,0.157083383,sugar_sweetened_drink_frequency
mafft,45,0.262559276,0.174277071,0.005435029,0.141776443,0.228098055,0.365333464,0.708332749,country_residence
mafft,6,0.14798905,0.09311118,0.002361939,0.109763714,0.14697554,0.221572465,0.247823401,drinking_water_source
mafft,6,0.056500696,0.031945812,0.008344988,0.042523579,0.053886102,0.080553122,0.094708786,mental_illness
mafft,10,0.139859045,0.089933083,0.027428952,0.070321961,0.125241532,0.182790388,0.300261828,exercise_frequency
mafft,10,0.326919877,0.303617239,0.03794463,0.086213961,0.156093157,0.640820468,0.75485485,vegetable_frequency
mafft,6,0.25697275,0.134097676,0.120826685,0.159530666,0.235782945,0.307045166,0.484531446,nail_biter
mafft,6,0.226490876,0.136031003,0.050515287,0.110981066,0.282593838,0.317006715,0.360987814,seasonal_allergies
mafft,1,0.087731603,,0.087731603,0.087731603,0.087731603,0.087731603,0.087731603,sex
mafft,55,0.298544061,0.2130709,0.007075022,0.151679901,0.251416183,0.448129082,0.86057992,country
bls,6,0.213715096,0.143424122,0.042665292,0.103511475,0.203681986,0.322504018,0.400028648,thyroid
bls,6,0.198391012,0.122837086,0.009180653,0.127342157,0.230472722,0.288328558,0.319640838,acne_medication
bls,10,0.019812728,0.01468934,0.00260741,0.008040997,0.014707233,0.03172189,0.042317671,cosmetics_frequency
bls,10,0.250702409,0.219934713,0.003236016,0.091679914,0.141962673,0.442893213,0.564790118,homecooked_meals_frequency
bls,6,0.194292581,0.096040207,0.082560859,0.131865863,0.183163841,0.233806012,0.351413676,tonsils_removed
bls,10,0.108593289,0.072453665,0.001846861,0.041900633,0.129960165,0.160995708,0.194016286,smoking_frequency
bls,10,0.351039617,0.204001202,0.089132184,0.231335367,0.321924577,0.462932195,0.778808252,antibiotic_history
bls,28,0.156950859,0.109716977,0.003999401,0.043320368,0.16091037,0.211340242,0.367152795,age_cat
bls,1,0.011153504,,0.011153504,0.011153504,0.011153504,0.011153504,0.011153504,lung_disease
bls,6,0.049319949,0.02522648,0.020440859,0.03496828,0.045073633,0.057324918,0.092323063,exercise_location
bls,10,0.117449872,0.091654116,0.002579023,0.037447792,0.108089525,0.174411176,0.289148272,meat_eggs_frequency
bls,10,0.183838464,0.127149984,0.025938407,0.083734398,0.168668852,0.289064807,0.382827356,olive_oil
bls,10,0.091763689,0.068033699,0.001347962,0.036920336,0.078380474,0.135229642,0.215197597,flossing_frequency
bls,10,0.089625207,0.075315412,0.019435684,0.027019119,0.049674048,0.160687476,0.206116875,diet_type
bls,1,0.1268966,,0.1268966,0.1268966,0.1268966,0.1268966,0.1268966,diabetes
bls,3,0.204745428,0.069717847,0.126820976,0.176511986,0.226202996,0.243707654,0.261212311,ibd
bls,10,0.129978772,0.120264024,0.00963122,0.032849697,0.065119869,0.248102472,0.297225247,vivid_dreams
bls,10,0.085935915,0.047665636,0.025963835,0.048387141,0.07963028,0.116337053,0.170464303,red_meat_frequency
bls,3,0.145862465,0.076319583,0.065184363,0.110339099,0.155493835,0.186201516,0.216909196,acid_reflux
bls,10,0.093365071,0.059629844,0.003824539,0.050454463,0.088945337,0.125320068,0.214128285,poultry_frequency
bls,6,0.17514306,0.094105288,0.054370237,0.129177362,0.148313867,0.240207188,0.306223569,chickenpox
bls,21,0.175040915,0.12281642,0.015742376,0.076254891,0.160549637,0.246085906,0.441864665,bowel_movement_quality
bls,6,0.202685732,0.106440329,0.067164081,0.124956797,0.206087676,0.268514215,0.349538727,fungal_overgrowth
bls,10,0.078601943,0.051364117,0.003124383,0.03542107,0.096619387,0.113245745,0.142774228,race
bls,10,0.150537922,0.096767421,0.011174695,0.071028666,0.154554439,0.214973022,0.294046088,salted_snacks_frequency
bls,1,0.155815471,,0.155815471,0.155815471,0.155815471,0.155815471,0.155815471,kidney_disease
bls,6,0.179675292,0.09778522,0.057455754,0.095084072,0.20825698,0.243406407,0.291599387,softener
bls,1,0.182211744,,0.182211744,0.182211744,0.182211744,0.182211744,0.182211744,liver_disease
bls,6,0.295815659,0.156485037,0.100784021,0.204655189,0.289837962,0.346108585,0.553307617,alcohol_consumption
bls,10,0.088406769,0.077229801,0.006080476,0.03086842,0.047860151,0.160416374,0.202253282,sugary_sweets_frequency
bls,6,0.228555877,0.139585831,0.013239947,0.200678296,0.2244102,0.257020325,0.44861689,multivitamin
bls,6,0.136776694,0.133770708,0.006014312,0.017972745,0.13656744,0.251178802,0.273687203,skin_condition
bls,6,0.184776132,0.122726423,0.000965487,0.140973776,0.181935762,0.23123455,0.368832523,bmi_cat
bls,10,0.110459935,0.060320028,0.028816408,0.066755421,0.097991931,0.146353827,0.231566609,probiotic_frequency
bls,3,0.132610489,0.063698754,0.074215348,0.09864655,0.123077751,0.16180806,0.200538369,weight_change
bls,10,0.08389545,0.047780705,0.012581069,0.050421361,0.077941165,0.110247155,0.161427233,artificial_sweeteners
bls,10,0.13375169,0.073614902,0.032497091,0.065329963,0.137719295,0.194625471,0.233517656,high_fat_red_meat_frequency
bls,10,0.193418673,0.138368161,0.010462657,0.077177543,0.174901162,0.309630498,0.389411954,alcohol_frequency
bls,10,0.197996974,0.152806597,0.015636827,0.068371862,0.159348885,0.345067993,0.415226084,fruit_frequency
bls,6,0.076637224,0.057257839,0.008233302,0.034854079,0.074161228,0.114202413,0.153966416,autoimmune
bls,10,0.087205924,0.055204486,0.011398881,0.066449778,0.082963796,0.099614751,0.182413287,ready_to_eat_meals_frequency
bls,1,0.154591085,,0.154591085,0.154591085,0.154591085,0.154591085,0.154591085,cancer
bls,3,0.456343598,0.232590475,0.194234749,0.365456266,0.536677782,0.587398023,0.638118263,cdiff
bls,10,0.177455235,0.176353877,0.003190246,0.031898488,0.079414648,0.365514817,0.412224617,prepared_meals_frequency
bls,10,0.199141768,0.133774271,0.009178895,0.147406791,0.16818357,0.290915754,0.431494191,frozen_dessert_frequency
bls,10,0.173682928,0.105180311,0.009189891,0.108936965,0.16562658,0.218442258,0.336232072,whole_eggs
bls,1,0.221782732,,0.221782732,0.221782732,0.221782732,0.221782732,0.221782732,cardiovascular_disease
bls,15,0.330098378,0.289206468,0.02372517,0.126164409,0.171698308,0.564395357,0.860330753,bowel_movement_frequency
bls,10,0.047587296,0.028804911,0.002190438,0.029309065,0.04373018,0.062653847,0.106518701,milk_substitute_frequency
bls,10,0.135287857,0.141598032,0.004080247,0.017220605,0.051470027,0.287876535,0.318906564,whole_grain_frequency
bls,10,0.495329193,0.467633988,0.060274414,0.118387399,0.226617615,0.964206976,1.239015816,teethbrushing_frequency
bls,6,0.122721346,0.11500645,0.004680812,0.025704129,0.114692676,0.217680411,0.254210977,gluten
bls,6,0.277412183,0.155126383,0.090576046,0.175184142,0.254194799,0.375379782,0.500885424,sibo
bls,10,0.123537281,0.095461577,0.004840651,0.038344166,0.120532755,0.212861277,0.243559935,one_liter_of_water_a_day_frequency
bls,10,0.180825032,0.099224212,0.075088523,0.09647322,0.169000406,0.247081387,0.370559648,seafood_frequency
bls,6,0.221708347,0.110458439,0.097519446,0.140993024,0.203856771,0.290486217,0.385615953,lactose
bls,3,0.07688925,0.06606359,0.000606487,0.05765811,0.114709733,0.115030631,0.115351529,asd
bls,36,0.264915273,0.189209522,0.023291228,0.108413188,0.225680788,0.40443381,0.790511805,drinks_per_session
bls,10,0.119839875,0.109522556,0.003258239,0.023195633,0.077180807,0.219097117,0.299664859,milk_cheese_frequency
bls,3,0.090550667,0.067087762,0.013757941,0.066938708,0.120119475,0.12894703,0.137774585,migraine
bls,10,0.226559197,0.189020208,0.008314477,0.069051275,0.1853638,0.353725682,0.584563087,pool_frequency
bls,10,0.098840756,0.059368574,0.005059511,0.061235479,0.090880639,0.123931781,0.189793578,sleep_duration
bls,6,0.084889884,0.04767633,0.032789095,0.048182913,0.079884352,0.111141367,0.157605363,ibs
bls,10,0.165999927,0.129599316,0.001435906,0.052350668,0.15019196,0.28260008,0.351445974,types_of_plants
bls,10,0.073540428,0.040405367,0.027546,0.042812517,0.065334599,0.094725301,0.155488829,sugar_sweetened_drink_frequency
bls,45,0.283660135,0.200814255,0.008097397,0.117266201,0.260924527,0.394468602,0.828987425,country_residence
bls,6,0.167495613,0.090475331,0.043683511,0.116117548,0.158089786,0.229516097,0.289658924,drinking_water_source
bls,6,0.064404557,0.037330669,0.00812785,0.041488659,0.07250957,0.091687399,0.104051988,mental_illness
bls,10,0.141294168,0.090112974,0.017553284,0.098112097,0.130862347,0.170123265,0.295092048,exercise_frequency
bls,10,0.331198307,0.290991511,0.019959838,0.114898843,0.178628255,0.603121242,0.745077888,vegetable_frequency
bls,6,0.222275702,0.132079782,0.032731873,0.189565563,0.215930098,0.237408347,0.443716993,nail_biter
bls,6,0.190503062,0.09628715,0.081184864,0.107622291,0.199638524,0.246981113,0.322844272,seasonal_allergies
bls,1,0.141567351,,0.141567351,0.141567351,0.141567351,0.141567351,0.141567351,sex
bls,55,0.330471041,0.222103242,0.016803131,0.154149041,0.29664841,0.468242352,0.956341489,country
muscle,6,0.186626866,0.09063203,0.04621662,0.139158862,0.198113293,0.246605657,0.295040825,thyroid
muscle,6,0.380836345,0.231738778,0.029688046,0.259998674,0.395498417,0.564310579,0.628919798,acne_medication
muscle,10,0.014543369,0.008815341,0.000365232,0.012062429,0.012598152,0.017752252,0.030575279,cosmetics_frequency
muscle,10,0.193812004,0.194841353,0.014839241,0.037014748,0.074853619,0.39745938,0.447319022,homecooked_meals_frequency
muscle,6,0.296274262,0.157171927,0.111060275,0.155331455,0.332075442,0.395624196,0.489210503,tonsils_removed
muscle,10,0.102948061,0.061362924,0.009489363,0.054239352,0.104659108,0.143792052,0.190476641,smoking_frequency
muscle,10,0.163189064,0.121472665,7.21E-05,0.067649586,0.140975048,0.229145387,0.387575304,antibiotic_history
muscle,28,0.252960852,0.153834095,0.038142312,0.131478905,0.239030455,0.35609877,0.60504891,age_cat
muscle,1,0.135650087,,0.135650087,0.135650087,0.135650087,0.135650087,0.135650087,lung_disease
muscle,6,0.027395658,0.013850078,0.012342215,0.016700289,0.026281078,0.034647421,0.048526683,exercise_location
muscle,10,0.090256767,0.062198965,0.015248303,0.039063595,0.076241213,0.128560183,0.194455938,meat_eggs_frequency
muscle,10,0.117850535,0.084036334,0.001359773,0.062316468,0.098956731,0.165089988,0.25994786,olive_oil
muscle,10,0.084021963,0.057473453,0.001926101,0.038524837,0.087868665,0.11143701,0.199153822,flossing_frequency
muscle,10,0.077568658,0.053811374,0.015638376,0.037228066,0.066201613,0.111167888,0.175623572,diet_type
muscle,1,0.05257342,,0.05257342,0.05257342,0.05257342,0.05257342,0.05257342,diabetes
muscle,3,0.118494146,0.036180873,0.076774642,0.107106688,0.137438735,0.139353898,0.14126906,ibd
muscle,10,0.112808418,0.083938156,0.007451463,0.057947321,0.084009757,0.16721029,0.248764804,vivid_dreams
muscle,10,0.06267352,0.036072371,0.013065836,0.042105304,0.056768952,0.096350159,0.114664062,red_meat_frequency
muscle,3,0.043594061,0.024628844,0.017050766,0.032537545,0.048024324,0.056865709,0.065707093,acid_reflux
muscle,10,0.069000735,0.040258444,0.006781816,0.042412472,0.068757955,0.08081978,0.147333147,poultry_frequency
muscle,6,0.277924776,0.179719647,0.03756055,0.138314692,0.338892075,0.398814375,0.461959919,chickenpox
muscle,21,0.180558874,0.106709981,0.004163759,0.111115584,0.154773016,0.256535592,0.433911897,bowel_movement_quality
muscle,6,0.09808516,0.053118438,0.025548826,0.064333187,0.097508469,0.134143886,0.168314745,fungal_overgrowth
muscle,10,0.127655611,0.089438685,0.007066863,0.05579711,0.13632745,0.167305123,0.309304833,race
muscle,10,0.142002999,0.083112304,0.009266007,0.106015062,0.138684217,0.164279013,0.294165958,salted_snacks_frequency
muscle,1,0.064136418,,0.064136418,0.064136418,0.064136418,0.064136418,0.064136418,kidney_disease
muscle,6,0.270754528,0.194716892,0.007718315,0.118728886,0.374568894,0.404324919,0.419978589,softener
muscle,1,0.188789828,,0.188789828,0.188789828,0.188789828,0.188789828,0.188789828,liver_disease
muscle,6,0.314048807,0.160534463,0.129161999,0.176949316,0.331308533,0.40552289,0.536756523,alcohol_consumption
muscle,10,0.086539856,0.054795234,0.028826014,0.039683975,0.075428207,0.122335069,0.183844497,sugary_sweets_frequency
muscle,6,0.309815374,0.161064132,0.115459091,0.176479351,0.3306144,0.406489447,0.525322223,multivitamin
muscle,6,0.140826701,0.088271074,0.025573356,0.087561984,0.126604422,0.210213956,0.253546369,skin_condition
muscle,6,0.113030564,0.078152873,0.001165748,0.056088387,0.146375885,0.170070729,0.180304301,bmi_cat
muscle,10,0.090313147,0.055613159,0.007948439,0.050596783,0.083535404,0.122683966,0.175228639,probiotic_frequency
muscle,3,0.089318999,0.039355008,0.056351491,0.067533911,0.078716331,0.105802753,0.132889175,weight_change
muscle,10,0.06544756,0.034656762,0.024505418,0.03729989,0.061972873,0.086940331,0.129100756,artificial_sweeteners
muscle,10,0.078690032,0.050310253,0.004056966,0.064640763,0.078262617,0.088312245,0.156575766,high_fat_red_meat_frequency
muscle,10,0.056706072,0.058939926,0.001284188,0.007497429,0.021806616,0.1207278,0.131680744,alcohol_frequency
muscle,10,0.130364029,0.094240085,0.018428738,0.058940047,0.10222358,0.212465918,0.282664169,fruit_frequency
muscle,6,0.117285711,0.076898991,0.013832986,0.070796332,0.118389967,0.15738683,0.227783773,autoimmune
muscle,10,0.103659481,0.083082892,0.012587652,0.044626634,0.065345727,0.16949423,0.231879091,ready_to_eat_meals_frequency
muscle,1,0.142611432,,0.142611432,0.142611432,0.142611432,0.142611432,0.142611432,cancer
muscle,3,0.390966192,0.241430025,0.112267851,0.318381148,0.524494445,0.530315362,0.536136279,cdiff
muscle,10,0.158117544,0.14054023,0.011789941,0.040642114,0.091546255,0.311171305,0.340440297,prepared_meals_frequency
muscle,10,0.164401831,0.098707058,0.03932881,0.098866548,0.155102511,0.212008067,0.373642823,frozen_dessert_frequency
muscle,10,0.091439032,0.065127474,0.001196387,0.032615114,0.094118276,0.144614388,0.178638318,whole_eggs
muscle,1,0.149896678,,0.149896678,0.149896678,0.149896678,0.149896678,0.149896678,cardiovascular_disease
muscle,15,0.22059865,0.205788484,0.001351135,0.072314915,0.133095292,0.39999237,0.559383631,bowel_movement_frequency
muscle,10,0.054136782,0.034347978,0.000725437,0.030194025,0.056058314,0.083572746,0.093411138,milk_substitute_frequency
muscle,10,0.11795099,0.097096999,0.018628656,0.044827671,0.06896779,0.20185988,0.265984278,whole_grain_frequency
muscle,10,0.332522025,0.376370328,0.025108519,0.03830509,0.065359847,0.712229608,0.894155275,teethbrushing_frequency
muscle,6,0.091477303,0.06785302,0.013469409,0.038396713,0.08438167,0.150896494,0.170494575,gluten
muscle,6,0.130309377,0.095013342,0.005393508,0.071932861,0.117508612,0.214357741,0.238063799,sibo
muscle,10,0.061268164,0.040861665,0.009058001,0.017060468,0.077666449,0.094214586,0.110986932,one_liter_of_water_a_day_frequency
muscle,10,0.142849225,0.095791136,0.000716114,0.096574241,0.138803194,0.17151547,0.29645077,seafood_frequency
muscle,6,0.295295913,0.196039089,0.039081745,0.132536783,0.390585105,0.430288008,0.461480538,lactose
muscle,3,0.1231446,0.083700453,0.029982204,0.088714637,0.14744707,0.169725799,0.192004527,asd
muscle,36,0.229154486,0.179207879,0.006825166,0.088368055,0.194796236,0.307943196,0.662827867,drinks_per_session
muscle,10,0.079642475,0.051954802,0.002647465,0.042272576,0.066447074,0.12378232,0.166867354,milk_cheese_frequency
muscle,3,0.093516741,0.062023306,0.023066362,0.070326318,0.117586273,0.12874193,0.139897587,migraine
muscle,10,0.183569071,0.11582395,0.019661393,0.11324525,0.131580972,0.267468135,0.41174427,pool_frequency
muscle,10,0.057566841,0.042186245,0.011397257,0.024048526,0.041051278,0.089546773,0.122267547,sleep_duration
muscle,6,0.020617053,0.012172115,0.002966607,0.016298874,0.020144987,0.024009323,0.040131462,ibs
muscle,10,0.03638005,0.020178495,0.009161379,0.021493963,0.034342223,0.052890308,0.068134982,types_of_plants
muscle,10,0.109939967,0.075363308,0.020897,0.061470061,0.088292582,0.152557482,0.237315857,sugar_sweetened_drink_frequency
muscle,45,0.299494032,0.228361463,0.003361482,0.126859791,0.245264513,0.41292721,0.921130577,country_residence
muscle,6,0.113357042,0.061124388,0.043749555,0.073624468,0.105550027,0.137739369,0.213840879,drinking_water_source
muscle,6,0.106204868,0.05714075,0.029919095,0.070252879,0.103333783,0.142906603,0.185319092,mental_illness
muscle,10,0.10380749,0.058840582,0.013052139,0.064473568,0.096031203,0.147237879,0.188659935,exercise_frequency
muscle,10,0.23162118,0.199356174,0.029466461,0.071819756,0.135595702,0.419843644,0.519329241,vegetable_frequency
muscle,6,0.286904572,0.155767333,0.0791538,0.190023832,0.27650616,0.388624157,0.5020681,nail_biter
muscle,6,0.278979188,0.192476128,0.001781204,0.142641745,0.362941287,0.417828129,0.440879044,seasonal_allergies
muscle,1,0.069681815,,0.069681815,0.069681815,0.069681815,0.069681815,0.069681815,sex
muscle,55,0.27670552,0.273094574,0.001824881,0.078331366,0.176965159,0.334890471,1.062719407,country
sepp,6,0.167640314,0.113974852,0.006374474,0.11104847,0.17004354,0.213687595,0.339761269,thyroid
sepp,6,0.344284957,0.211067762,0.070065907,0.168513917,0.418478292,0.4912173,0.558031158,acne_medication
sepp,10,0.016104736,0.008693151,0.00371006,0.011181217,0.015203263,0.020041339,0.032620239,cosmetics_frequency
sepp,10,0.207408457,0.203710171,0.020147772,0.04389074,0.080722313,0.422619752,0.49680598,homecooked_meals_frequency
sepp,6,0.305809184,0.15427465,0.128968949,0.171253914,0.326804983,0.398056979,0.511064989,tonsils_removed
sepp,10,0.107284916,0.058003706,0.037037759,0.063672859,0.101937453,0.14466626,0.218238876,smoking_frequency
sepp,10,0.240768099,0.157225349,0.008653125,0.126933892,0.25587141,0.282786434,0.552956426,antibiotic_history
sepp,28,0.272602878,0.167894526,0.031124602,0.143395962,0.268281676,0.391003768,0.648929909,age_cat
sepp,1,0.109614547,,0.109614547,0.109614547,0.109614547,0.109614547,0.109614547,lung_disease
sepp,6,0.013214088,0.008065099,0.000832996,0.012666048,0.012901378,0.013549858,0.026295158,exercise_location
sepp,10,0.105174384,0.081651813,0.001070351,0.042399876,0.076107054,0.171657989,0.247575716,meat_eggs_frequency
sepp,10,0.133877731,0.096991168,0.013324827,0.065925744,0.104137459,0.201981938,0.285233556,olive_oil
sepp,10,0.10829511,0.060707703,0.02915055,0.06707894,0.099244188,0.133773585,0.218926355,flossing_frequency
sepp,10,0.063241076,0.063468077,0.005470208,0.013262078,0.022896621,0.131348374,0.152147345,diet_type
sepp,1,0.016269962,,0.016269962,0.016269962,0.016269962,0.016269962,0.016269962,diabetes
sepp,3,0.116750981,0.082245473,0.026048227,0.08188846,0.137728694,0.162102359,0.186476024,ibd
sepp,10,0.120534275,0.121095728,0.002740994,0.024083851,0.044938257,0.254974221,0.270944736,vivid_dreams
sepp,10,0.10087193,0.061723131,0.015873705,0.06099126,0.084650578,0.138397146,0.221395389,red_meat_frequency
sepp,3,0.077519173,0.035818987,0.044747388,0.058400255,0.072053123,0.093905066,0.115757008,acid_reflux
sepp,10,0.052664493,0.033107881,0.001402261,0.03736521,0.056407569,0.06407671,0.100004109,poultry_frequency
sepp,6,0.27123312,0.176181071,0.012830951,0.15978152,0.30553195,0.402739728,0.457163506,chickenpox
sepp,21,0.207419407,0.121229014,0.013465881,0.128576013,0.169645959,0.27921119,0.480310132,bowel_movement_quality
sepp,6,0.144639322,0.076250648,0.044960789,0.098945512,0.134737502,0.194210536,0.252350412,fungal_overgrowth
sepp,10,0.141441438,0.087507957,0.021687253,0.079768031,0.144660602,0.178135711,0.325167563,race
sepp,10,0.154111473,0.081478427,0.047880356,0.089504767,0.154818397,0.201641937,0.297698681,salted_snacks_frequency
sepp,1,0.070631776,,0.070631776,0.070631776,0.070631776,0.070631776,0.070631776,kidney_disease
sepp,6,0.273579757,0.202383287,0.007671859,0.110276818,0.387708196,0.411828642,0.42072181,softener
sepp,1,0.166050101,,0.166050101,0.166050101,0.166050101,0.166050101,0.166050101,liver_disease
sepp,6,0.320100027,0.157992119,0.150315364,0.192738636,0.305016644,0.412493468,0.556619803,alcohol_consumption
sepp,10,0.11171516,0.095327025,0.015191585,0.03889429,0.060691525,0.199265951,0.250210433,sugary_sweets_frequency
sepp,6,0.327646463,0.160720378,0.158896264,0.196636851,0.318911837,0.412443149,0.569660063,multivitamin
sepp,6,0.110153857,0.065784353,0.037627818,0.058577975,0.1019835,0.152820699,0.205452426,skin_condition
sepp,6,0.102572051,0.064233619,0.016437897,0.051693019,0.127258543,0.146504549,0.165052928,bmi_cat
sepp,10,0.118498005,0.071812431,0.037497926,0.064446625,0.105865129,0.149860688,0.250651913,probiotic_frequency
sepp,3,0.117833835,0.064495493,0.047644192,0.089507635,0.131371078,0.152928656,0.174486234,weight_change
sepp,10,0.069366073,0.047960698,0.003951555,0.02566067,0.087718229,0.112407988,0.11796833,artificial_sweeteners
sepp,10,0.134264747,0.092740933,0.001932762,0.064597082,0.115684791,0.202835001,0.296032559,high_fat_red_meat_frequency
sepp,10,0.08472662,0.061243703,0.00946132,0.051628298,0.063794781,0.122886132,0.181527097,alcohol_frequency
sepp,10,0.157490083,0.139585809,0.006938892,0.055445535,0.08302136,0.288956777,0.352609396,fruit_frequency
sepp,6,0.079028462,0.043873427,0.02388977,0.053726439,0.070313287,0.10555416,0.144155824,autoimmune
sepp,10,0.113688176,0.081943893,0.001542944,0.073378402,0.090573365,0.159921831,0.239038571,ready_to_eat_meals_frequency
sepp,1,0.147950641,,0.147950641,0.147950641,0.147950641,0.147950641,0.147950641,cancer
sepp,3,0.436539699,0.155014855,0.30519964,0.351045529,0.396891417,0.502209729,0.607528041,cdiff
sepp,10,0.159393384,0.175459129,0.007311227,0.021350975,0.037469067,0.358203634,0.375782172,prepared_meals_frequency
sepp,10,0.15123784,0.079281033,0.054970294,0.088688451,0.146915402,0.182455554,0.320635486,frozen_dessert_frequency
sepp,10,0.123799448,0.079960602,0.013046081,0.054182118,0.129058446,0.18265878,0.234190163,whole_eggs
sepp,1,0.166550442,,0.166550442,0.166550442,0.166550442,0.166550442,0.166550442,cardiovascular_disease
sepp,15,0.274945343,0.263572683,0.02343372,0.061077656,0.177422196,0.4994831,0.728385642,bowel_movement_frequency
sepp,10,0.04459756,0.024989329,0.008890879,0.032433112,0.042008747,0.054741976,0.091738674,milk_substitute_frequency
sepp,10,0.136415871,0.124485388,0.007793681,0.032928016,0.076041909,0.267789294,0.307245881,whole_grain_frequency
sepp,10,0.291971875,0.281262951,0.03797298,0.069727803,0.121639594,0.567639873,0.723369995,teethbrushing_frequency
sepp,6,0.09447309,0.051226591,0.038375396,0.060709491,0.086210478,0.114263843,0.18021806,gluten
sepp,6,0.195987363,0.141722788,0.009745425,0.108001517,0.178141965,0.321091472,0.356532149,sibo
sepp,10,0.072136132,0.045205004,0.006145243,0.03547673,0.072119034,0.10215773,0.137077532,one_liter_of_water_a_day_frequency
sepp,10,0.16498715,0.115895452,0.009933844,0.120166159,0.140346387,0.200654436,0.357304847,seafood_frequency
sepp,6,0.30709014,0.19324627,0.023137426,0.175224966,0.382854631,0.450481164,0.474655729,lactose
sepp,3,0.146204071,0.077905004,0.060079802,0.113424144,0.166768485,0.189266205,0.211763926,asd
sepp,36,0.236001519,0.161000295,0.016136789,0.11101134,0.215188206,0.313415472,0.630140793,drinks_per_session
sepp,10,0.109435378,0.082113717,0.005830737,0.044675134,0.086020275,0.177497676,0.255729125,milk_cheese_frequency
sepp,3,0.088184612,0.038138138,0.059280829,0.06657164,0.073862452,0.102636504,0.131410556,migraine
sepp,10,0.162533594,0.10675543,0.015308014,0.083833833,0.163830946,0.219490202,0.384807809,pool_frequency
sepp,10,0.055735548,0.033729645,0.01272576,0.030459731,0.053306232,0.071394769,0.110880544,sleep_duration
sepp,6,0.050037689,0.032216027,0.002679079,0.037082141,0.049663663,0.062456736,0.098610335,ibs
sepp,10,0.055470307,0.03726144,0.008121114,0.027020301,0.048449176,0.078310724,0.116360029,types_of_plants
sepp,10,0.08865209,0.074258624,0.008495896,0.037995304,0.051192458,0.149901851,0.20016539,sugar_sweetened_drink_frequency
sepp,45,0.296245865,0.222941462,0.014107826,0.11724893,0.245557979,0.446197102,0.959359892,country_residence
sepp,6,0.153997237,0.077172771,0.07841711,0.094972071,0.141541484,0.185747774,0.282551206,drinking_water_source
sepp,6,0.100269803,0.064654037,0.013550253,0.048086004,0.133533181,0.143009975,0.155229684,mental_illness
sepp,10,0.090431254,0.052658533,0.013216682,0.051782411,0.092465547,0.122260492,0.177276141,exercise_frequency
sepp,10,0.228470246,0.210437719,0.03413811,0.055869712,0.105358492,0.432222835,0.533562727,vegetable_frequency
sepp,6,0.296904808,0.160869622,0.088117569,0.198960881,0.277566008,0.397757773,0.527598398,nail_biter
sepp,6,0.282489798,0.198787919,0.014612943,0.126626389,0.393539605,0.418209332,0.429158742,seasonal_allergies
sepp,1,0.102062203,,0.102062203,0.102062203,0.102062203,0.102062203,0.102062203,sex
sepp,55,0.318985883,0.271770329,0.008560463,0.083575996,0.306718119,0.461933296,1.069168885,country
pasta,6,0.17878515,0.12817813,0.022229806,0.083915765,0.168971748,0.284988841,0.333312621,thyroid
pasta,6,0.196341201,0.119350395,0.007315704,0.139014673,0.212837798,0.28715066,0.318727326,acne_medication
pasta,10,0.014459127,0.007695119,0.003305402,0.009385004,0.012471354,0.019727281,0.029525267,cosmetics_frequency
pasta,10,0.275886916,0.237629688,0.01527861,0.094625988,0.160608454,0.483041176,0.615386637,homecooked_meals_frequency
pasta,6,0.174005263,0.085665611,0.083117656,0.110749652,0.16183922,0.213136312,0.313280341,tonsils_removed
pasta,10,0.098170439,0.06829541,0.004148001,0.030269707,0.115180333,0.15612649,0.186554455,smoking_frequency
pasta,10,0.357948413,0.207776999,0.095647544,0.236494605,0.333531359,0.465600132,0.794248455,antibiotic_history
pasta,28,0.128883182,0.089639388,0.005120246,0.039645889,0.133520104,0.167942974,0.310898835,age_cat
pasta,1,0.002524311,,0.002524311,0.002524311,0.002524311,0.002524311,0.002524311,lung_disease
pasta,6,0.041689801,0.022559826,0.011588821,0.033553681,0.039158552,0.046129037,0.08009496,exercise_location
pasta,10,0.145241132,0.105260409,0.024997442,0.06145919,0.124898533,0.211728359,0.341060892,meat_eggs_frequency
pasta,10,0.186584006,0.128815386,0.035552525,0.085637686,0.168898303,0.2911105,0.38735846,olive_oil
pasta,10,0.093708303,0.068467432,0.001326551,0.070978473,0.072547965,0.127297011,0.200992215,flossing_frequency
pasta,10,0.099374899,0.065166377,0.020364446,0.049062209,0.089482474,0.148259233,0.202721126,diet_type
pasta,1,0.128444459,,0.128444459,0.128444459,0.128444459,0.128444459,0.128444459,diabetes
pasta,3,0.178619614,0.079164185,0.091364063,0.145007212,0.198650361,0.222247389,0.245844418,ibd
pasta,10,0.133478537,0.1281455,0.013901892,0.031424567,0.058563497,0.263754839,0.306366119,vivid_dreams
pasta,10,0.085848271,0.053349547,0.006669165,0.063703026,0.074016588,0.138539237,0.149589464,red_meat_frequency
pasta,3,0.13519204,0.077285646,0.050368523,0.101977836,0.153587149,0.177603798,0.201620446,acid_reflux
pasta,10,0.080598144,0.050332864,0.014145181,0.045775165,0.069185481,0.112145336,0.176605382,poultry_frequency
pasta,6,0.16660968,0.093237723,0.0721895,0.092298559,0.148406205,0.225830378,0.305421726,chickenpox
pasta,21,0.163842906,0.114574801,0.011569364,0.072947175,0.137750971,0.215953869,0.426758981,bowel_movement_quality
pasta,6,0.196457346,0.106322901,0.050249313,0.135093979,0.188373367,0.267112155,0.341055428,fungal_overgrowth
pasta,10,0.075553941,0.047751379,0.016667567,0.038536441,0.076531772,0.104982951,0.165631876,race
pasta,10,0.145440958,0.103705208,0.007167164,0.062601315,0.133342698,0.224903129,0.301418019,salted_snacks_frequency
pasta,1,0.136933002,,0.136933002,0.136933002,0.136933002,0.136933002,0.136933002,kidney_disease
pasta,6,0.163806906,0.088738153,0.057093421,0.084137307,0.190470166,0.219262929,0.267254145,softener
pasta,1,0.196913628,,0.196913628,0.196913628,0.196913628,0.196913628,0.196913628,liver_disease
pasta,6,0.29709885,0.153858818,0.130695899,0.183078225,0.284599725,0.360513793,0.547641544,alcohol_consumption
pasta,10,0.072741605,0.068045923,0.008998575,0.017723904,0.031474239,0.144736063,0.168889585,sugary_sweets_frequency
pasta,6,0.20745537,0.123804547,0.020618628,0.178715542,0.202195516,0.232845926,0.405770947,multivitamin
pasta,6,0.142822448,0.143718502,9.87E-06,0.017869224,0.142590824,0.26736187,0.286495594,skin_condition
pasta,6,0.197668727,0.131115124,0.012197136,0.134127227,0.192402523,0.260438073,0.391191466,bmi_cat
pasta,10,0.098163556,0.058289276,0.011309831,0.063675476,0.083461894,0.134096419,0.217257552,probiotic_frequency
pasta,3,0.123825688,0.055627911,0.083627454,0.092082001,0.100536548,0.143924806,0.187313063,weight_change
pasta,10,0.057537733,0.033444875,0.008793708,0.043012526,0.054049048,0.068169692,0.119627894,artificial_sweeteners
pasta,10,0.144800026,0.080041568,0.023106835,0.088044926,0.148843321,0.206214939,0.248302931,high_fat_red_meat_frequency
pasta,10,0.201614257,0.139714316,0.023420037,0.087679206,0.182514924,0.316391715,0.40260556,alcohol_frequency
pasta,10,0.183242168,0.141764787,0.014631085,0.062887316,0.147287504,0.318756268,0.385531679,fruit_frequency
pasta,6,0.060760258,0.04686083,0.009283893,0.022406096,0.058312251,0.095121526,0.12082449,autoimmune
pasta,10,0.088432252,0.06655945,0.005380293,0.044158735,0.066593617,0.129962706,0.201324351,ready_to_eat_meals_frequency
pasta,1,0.122011821,,0.122011821,0.122011821,0.122011821,0.122011821,0.122011821,cancer
pasta,3,0.435711938,0.233721512,0.169606063,0.349714385,0.529822707,0.568764876,0.607707044,cdiff
pasta,10,0.171052655,0.167615413,0.000125545,0.03195525,0.081828501,0.347190247,0.397568394,prepared_meals_frequency
pasta,10,0.208160014,0.124651132,0.012696601,0.132823177,0.205342501,0.283421424,0.408442158,frozen_dessert_frequency
pasta,10,0.17039137,0.109006732,0.005597523,0.109377285,0.167190239,0.216034112,0.342967484,whole_eggs
pasta,1,0.186985532,,0.186985532,0.186985532,0.186985532,0.186985532,0.186985532,cardiovascular_disease
pasta,15,0.344512748,0.297210247,0.046517009,0.110687567,0.245245834,0.561715958,0.882420199,bowel_movement_frequency
pasta,10,0.037808246,0.024592193,0.006859524,0.018881012,0.039639106,0.048324538,0.087984717,milk_substitute_frequency
pasta,10,0.111192205,0.120863652,0.005694374,0.014875681,0.031274812,0.240772773,0.268167881,whole_grain_frequency
pasta,10,0.489431296,0.437581327,0.062050424,0.131919068,0.257326301,0.909785431,1.206478322,teethbrushing_frequency
pasta,6,0.137495794,0.103183354,0.032080056,0.045990373,0.134842438,0.207863263,0.274633278,gluten
pasta,6,0.272592373,0.144621598,0.111842952,0.169373921,0.248577231,0.354136779,0.494260707,sibo
pasta,10,0.141690987,0.11353026,0.008358083,0.040690022,0.124163033,0.253280363,0.289306971,one_liter_of_water_a_day_frequency
pasta,10,0.161944797,0.097426089,0.004158605,0.099192449,0.14715791,0.217802847,0.303560436,seafood_frequency
pasta,6,0.204772851,0.102156145,0.100967934,0.122403082,0.190872096,0.25960445,0.36382967,lactose
pasta,3,0.073678656,0.058057384,0.00676706,0.055162703,0.103558345,0.107134454,0.110710563,asd
pasta,36,0.237515209,0.184684953,0.014059772,0.076185619,0.192984872,0.367025353,0.747179159,drinks_per_session
pasta,10,0.120838496,0.107396267,0.001630162,0.030017007,0.074861366,0.218734594,0.294314402,milk_cheese_frequency
pasta,3,0.081250117,0.060821605,0.011560356,0.060060363,0.10856037,0.116094998,0.123629625,migraine
pasta,10,0.221209107,0.194711688,0.013980485,0.056114864,0.161308577,0.370981196,0.574771996,pool_frequency
pasta,10,0.101565893,0.062448609,0.006076099,0.060988369,0.096077394,0.126864805,0.20116223,sleep_duration
pasta,6,0.074742262,0.04216497,0.012645274,0.064710664,0.073054993,0.081040068,0.144067328,ibs
pasta,10,0.170139329,0.135919118,0.005080579,0.047987902,0.156754329,0.293042652,0.35496374,types_of_plants
pasta,10,0.052164857,0.031798573,0.002200735,0.034579287,0.05489014,0.057991201,0.112453749,sugar_sweetened_drink_frequency
pasta,45,0.257784689,0.178429941,0.0115595,0.114781797,0.240364577,0.35636292,0.747380872,country_residence
pasta,6,0.158656328,0.085671496,0.041785356,0.105470962,0.155502867,0.217157991,0.272643517,drinking_water_source
pasta,6,0.05473256,0.033055207,0.003486731,0.036084924,0.06205253,0.079578885,0.087953513,mental_illness
pasta,10,0.144079674,0.094002411,0.021783366,0.092567915,0.126578595,0.182908125,0.303448344,exercise_frequency
pasta,10,0.343964322,0.298917859,0.005082389,0.11478768,0.201823479,0.623040108,0.764323258,vegetable_frequency
pasta,6,0.202647279,0.119324945,0.030868317,0.173534399,0.197069329,0.216350925,0.402409154,nail_biter
pasta,6,0.173590193,0.089269103,0.065133141,0.100720232,0.182595419,0.229610853,0.29250601,seasonal_allergies
pasta,1,0.114244693,,0.114244693,0.114244693,0.114244693,0.114244693,0.114244693,sex
pasta,55,0.308600498,0.213640158,0.000123159,0.130539844,0.313969119,0.415080108,0.865123133,country
post_processed_pasta,6,0.175816192,0.128914584,0.019783779,0.078999543,0.166817913,0.283968068,0.328732674,thyroid
post_processed_pasta,6,0.212453474,0.111213762,0.05735333,0.138082955,0.221569151,0.290877927,0.349994134,acne_medication
post_processed_pasta,10,0.014090547,0.008028998,0.003110416,0.00654617,0.015064411,0.021026415,0.025155736,cosmetics_frequency
post_processed_pasta,10,0.276314022,0.221419567,0.028668125,0.108848741,0.180707299,0.453481012,0.610506158,homecooked_meals_frequency
post_processed_pasta,6,0.194421145,0.094942289,0.088234278,0.125601311,0.181037416,0.250296857,0.335711812,tonsils_removed
post_processed_pasta,10,0.112200545,0.072979127,0.009678037,0.0419715,0.137494755,0.160461629,0.203986775,smoking_frequency
post_processed_pasta,10,0.336533793,0.196676804,0.080796502,0.219349139,0.313842398,0.437206056,0.749309902,antibiotic_history
post_processed_pasta,28,0.126412478,0.082939159,0.005767854,0.060447894,0.123311622,0.16236802,0.322312466,age_cat
post_processed_pasta,1,0.010519805,,0.010519805,0.010519805,0.010519805,0.010519805,0.010519805,lung_disease
post_processed_pasta,6,0.048456168,0.02424149,0.025215441,0.031005297,0.043906113,0.057338412,0.08918847,exercise_location
post_processed_pasta,10,0.131121717,0.097647887,0.014319487,0.048819252,0.118793353,0.191167595,0.314192322,meat_eggs_frequency
post_processed_pasta,10,0.188796867,0.126574593,0.041114288,0.091523321,0.174332957,0.286836537,0.390060926,olive_oil
post_processed_pasta,10,0.088700016,0.068973273,0.00290938,0.033368451,0.067905868,0.139552684,0.208589221,flossing_frequency
post_processed_pasta,10,0.100478239,0.068878111,0.00703898,0.045473287,0.09249991,0.152893949,0.203347655,diet_type
post_processed_pasta,1,0.113832827,,0.113832827,0.113832827,0.113832827,0.113832827,0.113832827,diabetes
post_processed_pasta,3,0.183165165,0.05785073,0.117454955,0.16153345,0.205611944,0.21602027,0.226428595,ibd
post_processed_pasta,10,0.109636708,0.10702074,0.00210492,0.021234164,0.048888939,0.221905274,0.254728029,vivid_dreams
post_processed_pasta,10,0.089270163,0.051920031,0.010097352,0.055825686,0.081979768,0.125822325,0.166913782,red_meat_frequency
post_processed_pasta,3,0.142419237,0.095187623,0.034017825,0.107452277,0.18088673,0.196619943,0.212353156,acid_reflux
post_processed_pasta,10,0.08527953,0.055738152,0.008393545,0.042968077,0.093113376,0.107088272,0.198838488,poultry_frequency
post_processed_pasta,6,0.190680073,0.10109101,0.074750875,0.126752544,0.166192551,0.253324539,0.340970053,chickenpox
post_processed_pasta,21,0.172818672,0.119078761,0.021722246,0.079270652,0.16507214,0.233574924,0.442812279,bowel_movement_quality
post_processed_pasta,6,0.18546714,0.095844066,0.07198188,0.126302565,0.164717197,0.240438107,0.332210469,fungal_overgrowth
post_processed_pasta,10,0.078678116,0.042078341,0.021109927,0.054265722,0.07958571,0.100662348,0.152095172,race
post_processed_pasta,10,0.140710226,0.09988315,0.004121101,0.054488009,0.137377664,0.220011168,0.280013963,salted_snacks_frequency
post_processed_pasta,1,0.102493369,,0.102493369,0.102493369,0.102493369,0.102493369,0.102493369,kidney_disease
post_processed_pasta,6,0.188970549,0.103963726,0.060832504,0.097294292,0.222540579,0.254698366,0.306946472,softener
post_processed_pasta,1,0.205841904,,0.205841904,0.205841904,0.205841904,0.205841904,0.205841904,liver_disease
post_processed_pasta,6,0.301325181,0.165803774,0.079080267,0.223685989,0.297847131,0.344973746,0.573528333,alcohol_consumption
post_processed_pasta,10,0.077816103,0.075847512,0.001050878,0.018459976,0.033199899,0.153949576,0.184225592,sugary_sweets_frequency
post_processed_pasta,6,0.231042265,0.130144946,0.047379321,0.183863484,0.2216603,0.266329226,0.443070256,multivitamin
post_processed_pasta,6,0.129914102,0.119050103,0.000889808,0.033018446,0.128644966,0.226109039,0.26156487,skin_condition
post_processed_pasta,6,0.181554842,0.116308086,0.016081383,0.128301225,0.175933449,0.232398391,0.357736914,bmi_cat
post_processed_pasta,10,0.098547634,0.055396372,0.028322614,0.068759606,0.087880159,0.130129345,0.21399726,probiotic_frequency
post_processed_pasta,3,0.128147709,0.058055281,0.082820806,0.095429542,0.108038278,0.150811161,0.193584044,weight_change
post_processed_pasta,10,0.080000104,0.049250795,0.003013204,0.058837693,0.078569175,0.091744444,0.158980849,artificial_sweeteners
post_processed_pasta,10,0.130840527,0.071951324,0.034104821,0.070160991,0.139049305,0.194254737,0.228202616,high_fat_red_meat_frequency
post_processed_pasta,10,0.193462071,0.135348932,0.02538967,0.082137285,0.174051032,0.307078622,0.388552569,alcohol_frequency
post_processed_pasta,10,0.192484872,0.152542393,0.00361802,0.062378848,0.150245913,0.34458143,0.407079181,fruit_frequency
post_processed_pasta,6,0.071347344,0.041510752,0.024791592,0.043285031,0.065370937,0.089771276,0.138722813,autoimmune
post_processed_pasta,10,0.088224473,0.061042511,0.005622753,0.044494555,0.078417659,0.11809635,0.199800016,ready_to_eat_meals_frequency
post_processed_pasta,1,0.116572157,,0.116572157,0.116572157,0.116572157,0.116572157,0.116572157,cancer
post_processed_pasta,3,0.412644406,0.213610144,0.172294934,0.328560204,0.484825473,0.532819142,0.580812811,cdiff
post_processed_pasta,10,0.173056002,0.165451726,0.013260828,0.03930528,0.076268106,0.338356159,0.408280564,prepared_meals_frequency
post_processed_pasta,10,0.196178739,0.126795151,0.005844377,0.137407031,0.176667534,0.279389483,0.408676562,frozen_dessert_frequency
post_processed_pasta,10,0.166779219,0.101013651,0.005613152,0.11478801,0.158924677,0.203634951,0.325006532,whole_eggs
post_processed_pasta,1,0.213567291,,0.213567291,0.213567291,0.213567291,0.213567291,0.213567291,cardiovascular_disease
post_processed_pasta,15,0.335708557,0.285079926,0.026789644,0.102336279,0.262427073,0.536884873,0.848916291,bowel_movement_frequency
post_processed_pasta,10,0.037411162,0.023782224,0.007272843,0.019784127,0.039145302,0.048046191,0.086624426,milk_substitute_frequency
post_processed_pasta,10,0.126850774,0.131629167,0.002978474,0.021047727,0.044311258,0.26832233,0.302455292,whole_grain_frequency
post_processed_pasta,10,0.489459894,0.423457521,0.072879614,0.147641935,0.282103066,0.881998944,1.191715171,teethbrushing_frequency
post_processed_pasta,6,0.124029904,0.103699302,0.020317159,0.031278545,0.1225963,0.200504682,0.251356231,gluten
post_processed_pasta,6,0.25654452,0.149544328,0.078291439,0.151657682,0.235886703,0.357655966,0.467375217,sibo
post_processed_pasta,10,0.123122289,0.099038743,0.00060855,0.033239558,0.121438176,0.211522302,0.251452196,one_liter_of_water_a_day_frequency
post_processed_pasta,10,0.177886572,0.099762888,0.053009725,0.102890929,0.168582836,0.246566566,0.355145846,seafood_frequency
post_processed_pasta,6,0.233036213,0.116923615,0.093672624,0.155290229,0.211522158,0.309213895,0.403176278,lactose
post_processed_pasta,3,0.064077994,0.041643112,0.017114892,0.04786511,0.078615329,0.087559546,0.096503763,asd
post_processed_pasta,36,0.25275966,0.194635705,0.007977048,0.087350759,0.200814837,0.4147099,0.791579206,drinks_per_session
post_processed_pasta,10,0.115221446,0.098785299,0.002045107,0.030110732,0.080506537,0.200523155,0.283420997,milk_cheese_frequency
post_processed_pasta,3,0.09269697,0.07056944,0.011329718,0.070446393,0.129563067,0.133380596,0.137198126,migraine
post_processed_pasta,10,0.240856739,0.175859527,0.005401542,0.119670275,0.190982246,0.357153539,0.576850721,pool_frequency
post_processed_pasta,10,0.09075816,0.053685401,0.006074205,0.057435552,0.085260118,0.111937344,0.174544647,sleep_duration
post_processed_pasta,6,0.063553177,0.040094404,0.003246775,0.049990669,0.063050073,0.076836907,0.12490209,ibs
post_processed_pasta,10,0.177432768,0.147478503,0.003380652,0.043532636,0.152547929,0.316633748,0.374811015,types_of_plants
post_processed_pasta,10,0.0841378,0.050837512,0.02182183,0.046352048,0.076945179,0.106494973,0.176994051,sugar_sweetened_drink_frequency
post_processed_pasta,45,0.277555732,0.192316155,0.005211189,0.125780247,0.255217885,0.39195313,0.79869844,country_residence
post_processed_pasta,6,0.168240244,0.087125083,0.058775613,0.112370722,0.157230804,0.22288662,0.294014992,drinking_water_source
post_processed_pasta,6,0.057524479,0.034421096,0.002962002,0.044553969,0.056548246,0.083909527,0.095502547,mental_illness
post_processed_pasta,10,0.144794717,0.091247239,0.029941183,0.091648104,0.130965197,0.180268549,0.302398715,exercise_frequency
post_processed_pasta,10,0.351251405,0.285946637,0.015391645,0.134235225,0.230758089,0.602391412,0.764791503,vegetable_frequency
post_processed_pasta,6,0.221350347,0.11862187,0.076736562,0.160604215,0.206855952,0.251554798,0.426012233,nail_biter
post_processed_pasta,6,0.199520428,0.102866467,0.083115628,0.107002004,0.217612115,0.259869627,0.334695281,seasonal_allergies
post_processed_pasta,1,0.102881269,,0.102881269,0.102881269,0.102881269,0.102881269,0.102881269,sex
post_processed_pasta,55,0.330099925,0.22486301,0.002289089,0.16844846,0.299258738,0.4470455,0.928666528,country